{
  "__type__": "cc.AnimationClip",
  "_name": "book_bullet_dead",
  "_objFlags": 0,
  "_native": "",
  "_duration": 0.6833333333333333,
  "sample": 60,
  "speed": 1,
  "wrapMode": 1,
  "curveData": {
    "comps": {
      "cc.Sprite": {
        "spriteFrame": [
          {
            "frame": 0,
            "value": {
              "__uuid__": "bcd51a84-ed5d-48d6-9be9-d69f5443f71a"
            }
          },
          {
            "frame": 0.08333333333333333,
            "value": {
              "__uuid__": "0b5e1a9e-ed58-4f82-b6dc-a15dbbbf7eec"
            }
          },
          {
            "frame": 0.16666666666666666,
            "value": {
              "__uuid__": "3add74c6-8625-4c35-8ed5-b5f770d7f220"
            }
          },
          {
            "frame": 0.25,
            "value": {
              "__uuid__": "6b3ecee4-d910-4947-857f-25a391753e24"
            }
          },
          {
            "frame": 0.3333333333333333,
            "value": {
              "__uuid__": "31efa2d4-b538-48c8-97c1-9306811bde78"
            }
          },
          {
            "frame": 0.4166666666666667,
            "value": {
              "__uuid__": "0fb07fed-d856-4d5c-9ca1-757596a92791"
            }
          },
          {
            "frame": 0.5,
            "value": {
              "__uuid__": "f0118d70-43bf-4c3d-a1d0-b5a48adb3815"
            }
          },
          {
            "frame": 0.5833333333333334,
            "value": {
              "__uuid__": "e7ff1a77-db8e-4baf-846e-12888f415009"
            }
          },
          {
            "frame": 0.6666666666666666,
            "value": {
              "__uuid__": "5f0bc8f3-63b2-4326-ab5c-907d156a05ea"
            }
          }
        ]
      }
    }
  },
  "events": []
}