{
  "__type__": "cc.AnimationClip",
  "_name": "coin_mountain_idle",
  "_objFlags": 0,
  "_native": "",
  "_duration": 0.05,
  "sample": 60,
  "speed": 1,
  "wrapMode": 2,
  "curveData": {
    "comps": {
      "cc.Sprite": {
        "spriteFrame": [
          {
            "frame": 0.03333333333333333,
            "value": {
              "__uuid__": "48d6e3d4-7a35-418f-849e-ea6ca51d6193"
            }
          }
        ]
      }
    }
  },
  "events": []
}