{
  "__type__": "cc.AnimationClip",
  "_name": "coin_mountain_dead",
  "_objFlags": 0,
  "_native": "",
  "_duration": 0.016666666666666666,
  "sample": 60,
  "speed": 1,
  "wrapMode": 2,
  "curveData": {
    "comps": {
      "cc.Sprite": {
        "spriteFrame": [
          {
            "frame": 0,
            "value": {
              "__uuid__": "c7b60dde-13bc-49e1-b5da-1467db7117df"
            }
          }
        ]
      }
    }
  },
  "events": []
}