{
  "__type__": "cc.AnimationClip",
  "_name": "goblin_walk",
  "_objFlags": 0,
  "_native": "",
  "_duration": 0.35,
  "sample": 60,
  "speed": 1,
  "wrapMode": 2,
  "curveData": {
    "comps": {
      "cc.Sprite": {
        "spriteFrame": [
          {
            "frame": 0,
            "value": {
              "__uuid__": "4be2c52d-ad0a-4803-a948-0485c15d5c12"
            }
          },
          {
            "frame": 0.08333333333333333,
            "value": {
              "__uuid__": "63f1e0b1-c2a8-4a9f-a330-31b077b200fa"
            }
          },
          {
            "frame": 0.16666666666666666,
            "value": {
              "__uuid__": "0ce245c2-c052-49dc-9212-12975ad2144d"
            }
          },
          {
            "frame": 0.25,
            "value": {
              "__uuid__": "505dae32-8f1d-46b4-9028-9c1f522ea7d9"
            }
          },
          {
            "frame": 0.3333333333333333,
            "value": {
              "__uuid__": "4be2c52d-ad0a-4803-a948-0485c15d5c12"
            }
          }
        ]
      }
    }
  },
  "events": []
}