{
  "__type__": "cc.AnimationClip",
  "_name": "ice_dead",
  "_objFlags": 0,
  "_native": "",
  "_duration": 0.016666666666666666,
  "sample": 60,
  "speed": 1,
  "wrapMode": 2,
  "curveData": {
    "comps": {
      "cc.Sprite": {
        "spriteFrame": [
          {
            "frame": 0,
            "value": {
              "__uuid__": "3e5ab53d-a7f0-4a9a-ab4f-d91f737978da"
            }
          }
        ]
      }
    }
  },
  "events": []
}