{
  "__type__": "cc.AnimationClip",
  "_name": "knight_dead",
  "_objFlags": 0,
  "_native": "",
  "_duration": 0.016666666666666666,
  "sample": 60,
  "speed": 1,
  "wrapMode": 2,
  "curveData": {
    "comps": {
      "cc.Sprite": {
        "spriteFrame": [
          {
            "frame": 0,
            "value": {
              "__uuid__": "b5456d20-3448-4291-a2df-9a533cd3e937"
            }
          }
        ]
      }
    }
  },
  "events": []
}