{
  "__type__": "cc.AnimationClip",
  "_name": "knight_idle",
  "_objFlags": 0,
  "_native": "",
  "_duration": 0.35,
  "sample": 60,
  "speed": 1,
  "wrapMode": 2,
  "curveData": {
    "comps": {
      "cc.Sprite": {
        "spriteFrame": [
          {
            "frame": 0,
            "value": {
              "__uuid__": "49f37022-73f6-4435-9f99-ef27faddaae1"
            }
          },
          {
            "frame": 0.16666666666666666,
            "value": {
              "__uuid__": "d1cb847c-7427-4324-bb41-64a830cd6bd4"
            }
          },
          {
            "frame": 0.3333333333333333,
            "value": {
              "__uuid__": "49f37022-73f6-4435-9f99-ef27faddaae1"
            }
          }
        ]
      }
    }
  },
  "events": []
}