{
  "__type__": "cc.AnimationClip",
  "_name": "magic_fire",
  "_objFlags": 0,
  "_native": "",
  "_duration": 0.35,
  "sample": 60,
  "speed": 1,
  "wrapMode": 2,
  "curveData": {
    "comps": {
      "cc.Sprite": {
        "spriteFrame": [
          {
            "frame": 0,
            "value": {
              "__uuid__": "277a8318-f462-450e-aaf1-295c73f8b94c"
            }
          },
          {
            "frame": 0.08333333333333333,
            "value": {
              "__uuid__": "cc011f4e-af87-4ed3-a108-909db07df54c"
            }
          },
          {
            "frame": 0.16666666666666666,
            "value": {
              "__uuid__": "53e89fa3-8be2-43fe-a844-f9ae7395b414"
            }
          },
          {
            "frame": 0.25,
            "value": {
              "__uuid__": "81318192-e6bf-404f-9e32-23f7f694d242"
            }
          },
          {
            "frame": 0.3333333333333333,
            "value": {
              "__uuid__": "277a8318-f462-450e-aaf1-295c73f8b94c"
            }
          }
        ]
      }
    }
  },
  "events": []
}