{
  "__type__": "cc.AnimationClip",
  "_name": "pig_walk",
  "_objFlags": 0,
  "_native": "",
  "_duration": 0.26666666666666666,
  "sample": 60,
  "speed": 0.6,
  "wrapMode": 2,
  "curveData": {
    "comps": {
      "cc.Sprite": {
        "spriteFrame": [
          {
            "frame": 0,
            "value": {
              "__uuid__": "06e2b17f-f39f-4591-b4fc-b7abadbf0ceb"
            }
          },
          {
            "frame": 0.08333333333333333,
            "value": {
              "__uuid__": "e6e36a62-9302-4040-8bb4-93f048d45bd3"
            }
          },
          {
            "frame": 0.16666666666666666,
            "value": {
              "__uuid__": "8376d73c-62b9-4aeb-a075-606908c80594"
            }
          },
          {
            "frame": 0.25,
            "value": {
              "__uuid__": "06e2b17f-f39f-4591-b4fc-b7abadbf0ceb"
            }
          }
        ]
      }
    }
  },
  "events": []
}