{
  "__type__": "cc.AnimationClip",
  "_name": "player_bullet_dead",
  "_objFlags": 0,
  "_native": "",
  "_duration": 0.6833333333333333,
  "sample": 60,
  "speed": 1,
  "wrapMode": 1,
  "curveData": {
    "comps": {
      "cc.Sprite": {
        "spriteFrame": [
          {
            "frame": 0,
            "value": {
              "__uuid__": "7071fc2c-8afe-4c69-978a-643db5d68500"
            }
          },
          {
            "frame": 0.08333333333333333,
            "value": {
              "__uuid__": "ca4508fb-1965-4832-aa0c-4a52caad33d8"
            }
          },
          {
            "frame": 0.16666666666666666,
            "value": {
              "__uuid__": "230f398e-fff9-4db4-9516-76133fc24168"
            }
          },
          {
            "frame": 0.25,
            "value": {
              "__uuid__": "6154dc2c-43d8-4e96-97dc-a61a00364bae"
            }
          },
          {
            "frame": 0.3333333333333333,
            "value": {
              "__uuid__": "6be8655b-7b51-4c14-9674-faf86492bb94"
            }
          },
          {
            "frame": 0.4166666666666667,
            "value": {
              "__uuid__": "5b542be6-2927-4123-b67e-b7b087dfcce8"
            }
          },
          {
            "frame": 0.5,
            "value": {
              "__uuid__": "74759dab-0bef-4193-bf32-2091228c2378"
            }
          },
          {
            "frame": 0.5833333333333334,
            "value": {
              "__uuid__": "da38683c-381a-485a-9162-c9c0a63dcbde"
            }
          },
          {
            "frame": 0.6666666666666666,
            "value": {
              "__uuid__": "16ba9c74-2712-4117-81f9-753248e0b2ee"
            }
          }
        ]
      }
    }
  },
  "events": []
}