{
  "__type__": "cc.AnimationClip",
  "_name": "wizard_reborn",
  "_objFlags": 0,
  "_native": "",
  "_duration": 0.35,
  "sample": 60,
  "speed": 1,
  "wrapMode": 1,
  "curveData": {
    "comps": {
      "cc.Sprite": {
        "spriteFrame": [
          {
            "frame": 0,
            "value": {
              "__uuid__": "e8ef10f2-96c6-4419-a57b-2501ea367de8"
            }
          },
          {
            "frame": 0.08333333333333333,
            "value": {
              "__uuid__": "bc25f35b-bda4-441e-85b7-7b567ce171c8"
            }
          },
          {
            "frame": 0.16666666666666666,
            "value": {
              "__uuid__": "aee38bb4-7688-4901-8336-a119cb82d4bf"
            }
          },
          {
            "frame": 0.25,
            "value": {
              "__uuid__": "e1139837-038e-46cd-a694-1a0f66b8e2d1"
            }
          },
          {
            "frame": 0.3333333333333333,
            "value": {
              "__uuid__": "d1c83e6d-4bfe-4225-93f4-b510641be901"
            }
          }
        ]
      }
    }
  },
  "events": []
}