{
  "group-list": [
    "default",
    "player",
    "enemy"
  ],
  "collision-matrix": [
    [
      true,
      true,
      true
    ],
    [
      true,
      false,
      true
    ],
    [
      true,
      true,
      false
    ]
  ],
  "excluded-modules": [],
  "last-module-event-record-time": 1624876981255,
  "design-resolution-width": 960,
  "design-resolution-height": 640,
  "fit-width": false,
  "fit-height": true,
  "use-project-simulator-setting": false,
  "simulator-orientation": false,
  "use-customize-simulator": true,
  "simulator-resolution": {
    "height": 640,
    "width": 960
  },
  "assets-sort-type": "name",
  "facebook": {
    "appID": "",
    "audience": {
      "enable": false
    },
    "enable": false,
    "live": {
      "enable": false
    }
  },
  "start-scene": "current"
}
